
_____________________________________
Relatório de Tarefas não realizadas por Evento
_______________________________________________

Eventos do mês de 1:
Não há eventos neste mês
_______________________________________________

Eventos do mês de 2:
Não há eventos neste mês
_______________________________________________

Eventos do mês de 3:
Não há eventos neste mês
_______________________________________________

Eventos do mês de 4:
Não há eventos neste mês
_______________________________________________

Eventos do mês de 5:
Não há eventos neste mês
_______________________________________________

Eventos do mês de 6:
Não há eventos neste mês
_______________________________________________

Eventos do mês de 7:
Não há eventos neste mês
_______________________________________________

Eventos do mês de 8:
Não há eventos neste mês
_______________________________________________

Eventos do mês de 9:
Não há eventos neste mês
_______________________________________________

Eventos do mês de 10:
Não há eventos neste mês
_______________________________________________

Eventos do mês de 11:
Não há eventos neste mês
_______________________________________________

Eventos do mês de 12:
Não há eventos neste mês